BST430 Lecture 7
…
*You have to have a good filepath to each dataset*

---

## Cardiac diagnoses

```r
diagnoses = read_csv('l07/data/cardiac-dx.csv')
diagnoses
```

```
## # A tibble: 100 × 3
##      id gender diagnoses                                         
##   <dbl> <chr>  <chr>                                             
## 1 26108 F      {a,d,d} | abdominal situs ambiguous (abdominal he…
## 2 10949 M      {s,d,l} | aortic stenosis - valvar | atrial septa…
## 3  8090 F      {s,l,l} | aortic valve position relative to the p…
## 4 19800 M      {s,l,l} | crisscross atrioventricular valves | de…
## 5  2708 M      aberrant left subclavian artery | hypoplastic mai…
## 6 14031 F      absence of the suprarenal inferior vena cava with…
## 7  4185 M      aortic arch hypoplasia | aortic atresia | coronar…
## 8   313 F      aortic arch hypoplasia | aortic atresia | hypopla…
## # ℹ 92 more rows
```

.question[How to get all the diagnoses of hypoplastic left heart?]

---

## Attempt 1

```r
diagnoses %>% count(diagnoses) %>% 
  arrange(desc(n))
```

```
## # A tibble: 67 × 2
##   diagnoses                                                     n
##   <chr>                                                     <int>
## 1 screener diagnosis: none                                     26
## 2 hypoplastic left heart syndrome | screener diagnosis: no…     5
## 3 atrial septal defect, secundum | screener diagnosis: atr…     3
## 4 aortic atresia | hypoplastic left heart syndrome | mitra…     2
## 5 screener diagnosis: none | tetralogy of fallot                2
## 6 aberrant left subclavian artery | hypoplastic main pulmo…     1
## 7 absence of the suprarenal inferior vena cava with azygou…     1
## 8 aortic arch hypoplasia | aortic atresia | coronary-camer…     1
## # ℹ 59 more rows
```

--

Too many unique diagnoses to make headway with this.

---

## Using string matching

```r
filter(diagnoses, str_detect(diagnoses, 'hypoplastic'))
```

```
## # A tibble: 50 × 3
##      id gender diagnoses                                         
##   <dbl> <chr>  <chr>                                             
## 1 26108 F      {a,d,d} | abdominal situs ambiguous (abdominal he…
## 2 10949 M      {s,d,l} | aortic stenosis - valvar | atrial septa…
## 3 19800 M      {s,l,l} | crisscross atrioventricular valves | de…
## 4  2708 M      aberrant left subclavian artery | hypoplastic mai…
## 5 14031 F      absence of the suprarenal inferior vena cava with…
## 6  4185 M      aortic arch hypoplasia | aortic atresia | coronar…
## 7   313 F      aortic arch hypoplasia | aortic atresia | hypopla…
## 8 10792 M      aortic arch hypoplasia | aortic atresia | hypopla…
## # ℹ 42 more rows
```
…
---

## Split into pieces

```r
diagnoses_row %>% filter(str_detect(diagnoses, 'hypoplastic')) %>%
  count(diagnoses) %>% arrange(desc(n))
```

```
## # A tibble: 15 × 2
##   diagnoses                                                 n
##   <chr>                                                 <int>
## 1 hypoplastic left heart syndrome                          21
## 2 hypoplastic right ventricle (subnormal cavity volume)     8
## 3 hypoplastic left ventricle (subnormal cavity volume)      7
## 4 hypoplastic mitral valve                                  7
## 5 hypoplastic left pulmonary artery                         6
## 6 hypoplastic main pulmonary artery                         6
## 7 hypoplastic right pulmonary artery                        5
## 8 hypoplastic tricuspid valve                               3
## # ℹ 7 more rows
```
…
---

## Application Exercise

.hand[Let's try.] 

Read some data

```r
data = read_csv("l07/ae/data/sample_sheet2.csv")
data
```

```
## # A tibble: 24 × 6
##   library_id folder_name        treatment sample_ID tissue_source
##        <dbl> <chr>                  <dbl> <chr>     <chr>        
## 1          1 Sample_300_0150_P…       300 300_0150  PBL          
## 2          2 Sample_300_0150_S…       300 300_0150  Syn          
## 3          4 Sample_300_0171_P…       300 300_0171  PBL          
## 4          5 Sample_300_0171_S…       300 300_0171  Syn          
## 5          6 Sample_300_0173_P…       300 300_0173  PBL          
## 6          7 Sample_300_0173_S…       300 300_0173  Syn          
## 7          8 Sample_300_0174_P…       300 300_0174  PBL          
## 8          9 Sample_300_0174_S…       300 300_0174  Syn          
## # ℹ 16 more rows
## # ℹ 1 more variable: dataset <chr>
```
…
---
Using this and `str_c`, recreate the fields `treatment`, `sample_ID`, `tissue_source`.
You can extract various columns using `char_matrix[,integer_of_the_column_you_want]`.  

--

```r
data %>% select(folder_name) %>% 
  mutate(treatment = char_matrix[,2],
         sample_ID = str_c(char_matrix[,2], "_", char_matrix[,3]),
         tissue_source = char_matrix[,4])
```

```
## # A tibble: 24 × 4
##   folder_name              treatment sample_ID tissue_source
##   <chr>                    <chr>     <chr>     <chr>        
## 1 Sample_300_0150_PBL_BT_5 300       300_0150  PBL          
## 2 Sample_300_0150_Syn_BT_5 300       300_0150  Syn          
## 3 Sample_300_0171_PBL_BT_5 300       300_0171  PBL          
## 4 Sample_300_0171_Syn_BT_5 300       300_0171  Syn          
## 5 Sample_300_0173_PBL_BT_5 300       300_0173  PBL          
## 6 Sample_300_0173_Syn_BT_5 300       300_0173  Syn          
## 7 Sample_300_0174_PBL_BT_5 300       300_0174  PBL          
## 8 Sample_300_0174_Syn_BT_5 300       300_0174  Syn          
## # ℹ 16 more rows
```

---
Convert the `dataset` field to be entirely lowercase with `str_to_lower`.

--

```r
data %>% select(dataset) %>% 
  mutate(new_data = str_to_lower(dataset))
```

```
## # A tibble: 24 × 2
##   dataset        new_data      
##   <chr>          <chr>         
## 1 300_0150_PBL_1 300_0150_pbl_1
## 2 300_0150_Syn_2 300_0150_syn_2
## 3 300_0171_PBL_4 300_0171_pbl_4
## 4 300_0171_Syn_5 300_0171_syn_5
## 5 300_0173_PBL_6 300_0173_pbl_6
## 6 300_0173_Syn_7 300_0173_syn_7
## 7 300_0174_PBL_8 300_0174_pbl_8
## 8 300_0174_Syn_9 300_0174_syn_9
## # ℹ 16 more rows
```
…
---

How many words contain an "x" anywhere in them? List them.

--

```r
filter(word_df, str_detect(word, "x"))
```

```
## # A tibble: 17 × 1
##   word    
##   <chr>   
## 1 box     
## 2 exact   
## 3 example 
## 4 except  
## 5 excuse  
## 6 exercise
## 7 exist   
## 8 expect  
## # ℹ 9 more rows
```
…
---

Using wildcards `.` and quantifiers `+` (rather than the results of the previous exercises), find all the words that contain "x" in the interior (but not at the start or end).  Check that the number of results from 1-4 are coherent.

--

```r
filter(word_df, str_detect(word, '.+x.+'))
```

```
## # A tibble: 13 × 1
##   word    
##   <chr>   
## 1 exact   
## 2 example 
## 3 except  
## 4 excuse  
## 5 exercise
## 6 exist   
## 7 expect  
## 8 expense 
## # ℹ 5 more rows
```
…
---
## Sentences

Now, consider the  in the `sentences` data set:

```r
sentence_df = tibble(sentence  = sentences)
sentence_df
```

```
## # A tibble: 720 × 1
##   sentence                                   
##   <chr>                                      
## 1 The birch canoe slid on the smooth planks. 
## 2 Glue the sheet to the dark blue background.
## 3 It's easy to tell the depth of a well.     
## 4 These days a chicken leg is a rare dish.   
## 5 Rice is often served in round bowls.       
## 6 The juice of lemons makes fine punch.      
## 7 The box was thrown beside the parked truck.
## 8 The hogs were fed chopped corn and garbage.
## # ℹ 712 more rows
```
…
```
## # A tibble: 3 × 2
##   sentence                                    first_word
##   <chr>                                       <chr>     
## 1 The birch canoe slid on the smooth planks.  The       
## 2 Glue the sheet to the dark blue background. Glue      
## 3 It's easy to tell the depth of a well.      It
```

```r
sentence_df %>% mutate(first_word = str_extract(sentence, '([^ ])*'))
```

```
## # A tibble: 720 × 2
##   sentence                                    first_word
##   <chr>                                       <chr>     
## 1 The birch canoe slid on the smooth planks.  The       
## 2 Glue the sheet to the dark blue background. Glue      
## 3 It's easy to tell the depth of a well.      It's      
## 4 These days a chicken leg is a rare dish.    These     
## 5 Rice is often served in round bowls.        Rice      
## 6 The juice of lemons makes fine punch.       The       
## 7 The box was thrown beside the parked truck. The       
## 8 The hogs were fed chopped corn and garbage. The       
## # ℹ 712 more rows
```

---
Return all the sentences that contain the colors "red", "blue" or "green".  Use the `|` disjunction.

--

```r
filter(sentence_df, str_detect(sentence, ("red|blue|green")))
```

```
## # A tibble: 54 × 1
##   sentence                                   
##   <chr>                                      
## 1 Glue the sheet to the dark blue background.
## 2 Two blue fish swam in the tank.            
## 3 The colt reared and threw the tall rider.  
## 4 The wide road shimmered in the hot sun.    
## 5 See the cat glaring at the scared mouse.   
## 6 A wisp of cloud hung in the blue air.      
## 7 He ordered peach pie with ice cream.       
## 8 Pure bred poodles have curls.              
## # ℹ 46 more rows
```

---
Extract the first word ending in "s".  Use a capture group `()`, `str_match()` and the everything-but-space `[^ ]` character class.

--

```r
sentence_df = sentence_df %>% 
  mutate(ends_in_s = str_match(sentence, "([^ ]*s)\\b")[,2])
sentence_df
```

```
## # A tibble: 720 × 2
##   sentence                                    ends_in_s
##   <chr>                                       <chr>    
## 1 The birch canoe slid on the smooth planks.  planks   
## 2 Glue the sheet to the dark blue background. <NA>     
## 3 It's easy to tell the depth of a well.      It's     
## 4 These days a chicken leg is a rare dish.    days     
## 5 Rice is often served in round bowls.        is       
## 6 The juice of lemons makes fine punch.       lemons   
## 7 The box was thrown beside the parked truck. was      
## 8 The hogs were fed chopped corn and garbage. hogs     
## # ℹ 712 more rows
```

---
(Stretch goal) Notice that two questions ago, we also matched the sentence

> The colt reared and threw the tall rider.

because "reared" contains "red". Fix the regular expression so it only matches the complete words, not just a fragment using the "\b" word start marker.  Hint:  use "\\\\b" to keep the backslash from being used as an escape character.
--

```r
filter(sentence_df, str_detect(sentence, ("\\bred\\b|\\bblue\\b|\\bgreen\\b")))
```

```
## # A tibble: 26 × 2
##   sentence                                        ends_in_s
##   <chr>                                           <chr>    
## 1 Glue the sheet to the dark blue background.     <NA>     
## 2 Two blue fish swam in the tank.                 <NA>     
## 3 A wisp of cloud hung in the blue air.           <NA>     
## 4 The spot on the blotter was made by green ink.  was      
## 5 The sofa cushion is red and of light weight.    is       
## 6 The sky that morning was clear and bright blue. was      
## 7 A blue crane is a tall wading bird.             is       
## 8 It is hard to erase blue or red ink.            is       
## # ℹ 18 more rows
```
…
