BST430 Lecture 17
…
???

Dropping `from`, `sent_email` quells the warnings about predicted probabilities being 0/1. Actually some of these variables might have predictive power, but we would need a more sophisticated approach than logistic regression to use them

---

## Predict outcome on the testing dataset

```r
predict(email_fit, test_data)
```

```
## # A tibble: 785 × 1
##   .pred_class
##   <fct>      
## 1 0          
## 2 0          
## 3 0          
## 4 0          
## # ℹ 781 more rows
```

---

## Predict probabilities on the testing dataset

```r
email_pred = predict(email_fit, test_data, type = "prob") %>%
  bind_cols(test_data %>% select(spam, time))

email_pred
```

```
## # A tibble: 785 × 4
##   .pred_0 .pred_1 spam  time               
##     <dbl>   <dbl> <fct> <dttm>             
## 1   0.998 0.00195 0     2012-01-01 14:38:32
## 2   0.994 0.00577 0     2012-01-01 18:32:53
## 3   0.991 0.00917 0     2012-01-01 22:16:39
## 4   0.988 0.0121  0     2012-01-02 19:07:51
## # ℹ 781 more rows
```

---

## A closer look at predictions

```r
email_pred %>%
  arrange(desc(.pred_1)) %>%
  print(n = 10)
```

```
## # A tibble: 785 × 4
##    .pred_0 .pred_1 spam  time               
##      <dbl>   <dbl> <fct> <dttm>             
##  1   0.262   0.738 0     2012-02-03 08:25:39
##  2   0.267   0.733 0     2012-01-31 10:07:48
*##  3   0.311   0.689 1     2012-01-18 20:42:10
##  4   0.312   0.688 1     2012-02-24 19:43:44
##  5   0.335   0.665 1     2012-01-25 11:17:54
##  6   0.335   0.665 0     2012-02-04 05:39:37
*##  7   0.338   0.662 1     2012-01-05 18:12:55
##  8   0.430   0.570 0     2012-01-24 07:00:04
##  9   0.458   0.542 0     2012-01-10 13:53:09
## 10   0.458   0.542 0     2012-01-11 00:14:57
## # ℹ 775 more rows
```
…
```
## Warning: glm.fit: fitted probabilities numerically 0 or 1 occurred
```

---

.code50[

```r
tidy(email_fit)
```

```
## # A tibble: 30 × 5
##   term        estimate std.error statistic   p.value
##   <chr>          <dbl>     <dbl>     <dbl>     <dbl>
## 1 (Intercept) -1.18      0.273       -4.31 0.0000164
## 2 image       -2.00      0.976       -2.05 0.0408   
## 3 num_char     0.0611    0.0240       2.54 0.0111   
## 4 line_breaks -0.00517   0.00135     -3.82 0.000135 
## # ℹ 26 more rows
```
…
