BST430 Lecture 16
…
---
class: code50

### Example

.alert[But don't do this without thinking!]

```r
tidy(lm(mpg ~ ., data = mtcars))
```

```
## # A tibble: 13 x 5
##   term        estimate std.error statistic p.value
##   <chr>          <dbl>     <dbl>     <dbl>   <dbl>
## 1 (Intercept)  15.1      17.1        0.881   0.389
## 2 cyl6         -1.20      2.39      -0.502   0.621
## 3 cyl8          3.05      4.83       0.633   0.535
## 4 disp          0.0126    0.0177     0.708   0.487
## # ... with 9 more rows
```
…
???

Dropping `from`, `sent_email` quells the warnings about predicted probabilities being 0/1. Actually some of these variables might have predictive power, but we would need a more sophisticated approach than logistic regression to use them

---

## Predict outcome on the testing dataset

```r
predict(email_fit, test_data)
```

```
## # A tibble: 785 x 1
##   .pred_class
##   <fct>      
## 1 0          
## 2 0          
## 3 0          
## 4 0          
## # ... with 781 more rows
```

---

## Predict probabilities on the testing dataset

```r
email_pred = predict(email_fit, test_data, type = "prob") %>%
  bind_cols(test_data %>% select(spam, time))

email_pred
```

```
## # A tibble: 785 x 4
##   .pred_0 .pred_1 spam  time               
##     <dbl>   <dbl> <fct> <dttm>             
## 1   0.999 0.00127 0     2012-01-01 14:38:32
## 2   0.996 0.00373 0     2012-01-01 18:32:53
## 3   0.994 0.00596 0     2012-01-01 22:16:39
## 4   0.992 0.00801 0     2012-01-02 19:07:51
## # ... with 781 more rows
```

---

## A closer look at predictions

```r
email_pred %>%
  arrange(desc(.pred_1)) %>%
  print(n = 10)
```

```
## # A tibble: 785 x 4
##    .pred_0 .pred_1 spam  time               
##      <dbl>   <dbl> <fct> <dttm>             
##  1  0.0970   0.903 1     2012-03-27 01:17:01
##  2  0.165    0.835 1     2012-03-01 00:40:27
*##  3  0.191    0.809 1     2012-01-21 16:55:55
##  4  0.206    0.794 0     2012-01-02 22:30:31
##  5  0.243    0.757 1     2012-03-31 05:20:24
##  6  0.258    0.742 1     2012-03-17 12:20:57
*##  7  0.288    0.712 0     2012-02-03 08:25:39
##  8  0.293    0.707 1     2012-02-24 19:43:44
##  9  0.308    0.692 0     2012-01-31 10:07:48
## 10  0.346    0.654 0     2012-02-04 05:39:37
## # ... with 775 more rows
```
…
```
## Warning: glm.fit: fitted probabilities numerically 0 or 1 occurred
```

---

.code50[

```r
tidy(email_fit)
```

```
## # A tibble: 30 x 5
##   term        estimate std.error statistic   p.value
##   <chr>          <dbl>     <dbl>     <dbl>     <dbl>
## 1 (Intercept) -1.18      0.273       -4.31 0.0000164
## 2 image       -2.00      0.976       -2.05 0.0408   
## 3 num_char     0.0611    0.0240       2.54 0.0111   
## 4 line_breaks -0.00517   0.00135     -3.82 0.000135 
## # ... with 26 more rows
```
…
