BST430 Lecture 3
…
- Select a subset of rows in a data frame based on when a logical expression returns `TRUE`
- Easily filter for many conditions at once by combining logical expressions

---
class: code70
## `filter`

- Let's extract all flights from new york that occurred in April.

```r
flights %>% filter(month == 4)
```

```
## # A tibble: 28,330 × 19
##    year month   day dep_time sched_dep_time dep_delay
##   <int> <int> <int>    <int>          <int>     <dbl>
## 1  2013     4     1      454            500        -6
## 2  2013     4     1      509            515        -6
## 3  2013     4     1      526            530        -4
## 4  2013     4     1      534            540        -6
## # … with 28,326 more rows, and 13 more variables:
## #   arr_time <int>, sched_arr_time <int>, arr_delay <dbl>,
## #   carrier <chr>, flight <int>, tailnum <chr>, …
```

---
class: code70
## `filter` with multple conditions

- You can filter based on more than two variables using logical operators.
- All flights that were both in April and from JFK:

```r
flights %>% filter(month == 4 & origin == "JFK")
```

```
## # A tibble: 9,218 × 19
##    year month   day dep_time sched_dep_time dep_delay
##   <int> <int> <int>    <int>          <int>     <dbl>
## 1  2013     4     1      534            540        -6
## 2  2013     4     1      542            545        -3
## 3  2013     4     1      543            545        -2
## 4  2013     4     1      555            600        -5
## # … with 9,214 more rows, and 13 more variables:
## #   arr_time <int>, sched_arr_time <int>, arr_delay <dbl>,
## #   carrier <chr>, flight <int>, tailnum <chr>, …
```

---
class: code70
## `filter` with multple conditions

- `filter()` will also perform the **and** operation if you separate logical conditions by a comma.

```r
flights %>% filter(month == 4, origin == "JFK")
```

```
## # A tibble: 9,218 × 19
##    year month   day dep_time sched_dep_time dep_delay
##   <int> <int> <int>    <int>          <int>     <dbl>
## 1  2013     4     1      534            540        -6
## 2  2013     4     1      542            545        -3
## 3  2013     4     1      543            545        -2
## 4  2013     4     1      555            600        -5
## # … with 9,214 more rows, and 13 more variables:
## #   arr_time <int>, sched_arr_time <int>, arr_delay <dbl>,
## #   carrier <chr>, flight <int>, tailnum <chr>, …
```
…
1. .question[Extract the January LGA flights and the December JFK flights.]
4. .question[Extract flights whose `dep_time` was `NA`.]
2. .question[Extract flights that left in November or December.]
3. .question[Extract flights that left in November or December using the `%in%` operator.]

--

```r
    flights %>%
      filter((month == 1 & origin == "LGA") | (month == 12 & origin == "JFK"))
```

```
## # A tibble: 17,096 × 19
##    year month   day dep_time sched_dep_time dep_delay
##   <int> <int> <int>    <int>          <int>     <dbl>
## 1  2013     1     1      533            529         4
## 2  2013     1     1      554            600        -6
## 3  2013     1     1      557            600        -3
## 4  2013     1     1      558            600        -2
## # … with 17,092 more rows, and 13 more variables:
## #   arr_time <int>, sched_arr_time <int>, arr_delay <dbl>,
## #   carrier <chr>, flight <int>, tailnum <chr>, …
```
…
---
class: code70
## `mutate` to add new variables

- We can use `mutate()` to create new variables from old.

```r
flights %>% mutate(gain = dep_delay - arr_delay,
             speed = distance / air_time * 60,
             .before = year) #add before `year` variable
```

```
## # A tibble: 336,776 × 21
##    gain speed  year month   day dep_time sched_dep_time
##   <dbl> <dbl> <int> <int> <int>    <int>          <int>
## 1    -9  370.  2013     1     1      517            515
## 2   -16  374.  2013     1     1      533            529
## 3   -31  408.  2013     1     1      542            540
## 4    17  517.  2013     1     1      544            545
## # … with 336,772 more rows, and 14 more variables:
## #   dep_delay <dbl>, arr_time <int>, sched_arr_time <int>,
## #   arr_delay <dbl>, carrier <chr>, flight <int>, …
```
…
---
## Answer

```r
flights %>% mutate(dep_h = dep_time %/% 100,
            dep_m = dep_time %% 100,
            dep_elapsed_min = dep_h * 60 + dep_m,
            .after=dep_time)
```

```
## # A tibble: 336,776 × 22
##    year month   day dep_time dep_h dep_m dep_elapsed_min
##   <int> <int> <int>    <int> <dbl> <dbl>           <dbl>
## 1  2013     1     1      517     5    17             317
## 2  2013     1     1      533     5    33             333
## 3  2013     1     1      542     5    42             342
## 4  2013     1     1      544     5    44             344
## # … with 336,772 more rows, and 15 more variables:
## #   sched_dep_time <int>, dep_delay <dbl>, arr_time <int>,
## #   sched_arr_time <int>, arr_delay <dbl>, carrier <chr>, …
```

---
## Only preserving new variables

If you only want to keep new variables, use `transmute()`

```r
flights %>%
      transmute(gain = dep_delay - arr_delay,
                hours = air_time / 60,
                gain_per_hour = gain / hours)
```

```
## # A tibble: 336,776 × 3
##    gain hours gain_per_hour
##   <dbl> <dbl>         <dbl>
## 1    -9  3.78         -2.38
## 2   -16  3.78         -4.23
## 3   -31  2.67        -11.6 
## 4    17  3.05          5.57
## # … with 336,772 more rows
```
…
---

## or `select` to exclude variables

```r
flights %>%
  select(-year)
```

```
## # A tibble: 336,776 × 19
##   month   day dep_time sched_dep_time dep_delay arr_time
##   <int> <int>    <int>          <int>     <dbl>    <int>
## 1     1     1      517            515         2      830
## 2     1     1      533            529         4      850
## 3     1     1      542            540         2      923
## 4     1     1      544            545        -1     1004
## # … with 336,772 more rows, and 13 more variables:
## #   sched_arr_time <int>, arr_delay <dbl>, carrier <chr>,
## #   flight <int>, tailnum <chr>, origin <chr>, …
```

---

## or `select` a range of variables

```r
flights %>%
  select(carrier:dest)
```

```
## # A tibble: 336,776 × 5
##   carrier flight tailnum origin dest 
##   <chr>    <int> <chr>   <chr>  <chr>
## 1 UA        1545 N14228  EWR    IAH  
## 2 UA        1714 N24211  LGA    IAH  
## 3 AA        1141 N619AA  JFK    MIA  
## 4 B6         725 N804JB  JFK    BQN  
## # … with 336,772 more rows
```
…
---
class: code70

## What's with the `na.rm=TRUE`?

- Although you will frequently want to set `na.rm = TRUE` in statistical functions, it defaults `FALSE` for a reason -- so you will know there are and examine why there are missing values.

```r
filter(flights, is.na(dep_delay))
```

```
## # A tibble: 8,255 × 20
##    year month   day dep_time sched_dep_time dep_delay
##   <int> <int> <int>    <int>          <int>     <dbl>
## 1  2013     1     1       NA           1630        NA
## 2  2013     1     1       NA           1935        NA
## 3  2013     1     1       NA           1500        NA
## 4  2013     1     1       NA            600        NA
## # … with 8,251 more rows, and 14 more variables:
## #   arr_time <int>, sched_arr_time <int>, arr_delay <dbl>,
## #   carrier <chr>, flight <int>, tailnum <chr>, …
```
…
---

## `arrange` to sort a `data.frame` on its values

What flights departed earliest before their scheduled time?

```r
flights %>% arrange(dep_delay) %>% relocate(dep_delay)
```

```
## # A tibble: 336,776 × 20
##   dep_delay  year month   day dep_time sched_dep_time
##       <dbl> <int> <int> <int>    <int>          <int>
## 1       -43  2013    12     7     2040           2123
## 2       -33  2013     2     3     2022           2055
## 3       -32  2013    11    10     1408           1440
## 4       -30  2013     1    11     1900           1930
## # … with 336,772 more rows, and 14 more variables:
## #   arr_time <int>, sched_arr_time <int>, arr_delay <dbl>,
## #   carrier <chr>, flight <int>, tailnum <chr>, …
```

---

## Descending arrange

What were the most delayed flights? 

```r
flights %>% arrange(desc(arr_delay)) %>%
  relocate(arr_delay)
```

```
## # A tibble: 336,776 × 20
##   arr_delay  year month   day dep_time sched_dep_time
##       <dbl> <int> <int> <int>    <int>          <int>
## 1      1272  2013     1     9      641            900
## 2      1127  2013     6    15     1432           1935
## 3      1109  2013     1    10     1121           1635
## 4      1007  2013     9    20     1139           1845
## # … with 336,772 more rows, and 14 more variables:
## #   dep_delay <dbl>, arr_time <int>, sched_arr_time <int>,
## #   carrier <chr>, flight <int>, tailnum <chr>, …
```
---

## Arranging with ties

```r
flights %>% select(sched_dep_time, origin, dest, day, carrier, flight) %>%
  arrange(origin, dest,sched_dep_time, day)
```

```
## # A tibble: 336,776 × 6
##   sched_dep_time origin dest    day carrier flight
##            <int> <chr>  <chr> <int> <chr>    <int>
## 1            720 EWR    ALB      13 EV        4565
## 2            720 EWR    ALB      14 EV        4565
## 3            720 EWR    ALB      15 EV        4565
## 4            720 EWR    ALB      16 EV        4565
## # … with 336,772 more rows
```
This might reveal when flight numbers are reused or changed for the same route and timing.

---

## `distinct` to filter for unique rows

```r
flights %>% 
  select(origin, dest) %>% 
  distinct() %>% 
  arrange(origin, dest)
```

```
## # A tibble: 224 × 2
##   origin dest 
##   <chr>  <chr>
## 1 EWR    ALB  
## 2 EWR    ANC  
## 3 EWR    ATL  
## 4 EWR    AUS  
## # … with 220 more rows
```
…
---

## grouped summaries

To do it by carrier, we just add

```r
ontime %>% 
* group_by(carrier) %>%
  summarize(ontime_pct = mean(ontime, na.rm = TRUE)*100) %>%
  arrange(ontime_pct)
```

```
## # A tibble: 16 × 2
##   carrier ontime_pct
##   <chr>        <dbl>
## 1 FL            40.3
## 2 F9            42.4
## 3 EV            52.1
## 4 YV            52.6
## # … with 12 more rows
```
…
