BST430 Lecture 4
…
# Why should you care about data types?

---

## Example: Cat lovers

A survey asked respondents their name and number of cats. The instructions said to enter the number of cats as a numerical value.

```r
cat_lovers = read_csv("l04/data/cat-lovers.csv")
```

```
## # A tibble: 60 × 3
##   name           number_of_cats handedness
##   <chr>          <chr>          <chr>     
## 1 Bernice Warren 0              left      
## 2 Woodrow Stone  0              left      
## 3 Willie Bass    1              left      
## 4 Tyrone Estrada 3              left      
## # … with 56 more rows
```
…
