BST430 Lecture 5a
…
.footnote[
Source: [FiveThirtyEight](https://projects.fivethirtyeight.com/biden-approval-rating/adults/)
]

---

## Data

```r
biden
```

```
## # A tibble: 835 × 4
##   subgroup date       approval disapproval
##   <chr>    <date>        <dbl>       <dbl>
## 1 Adults   2021-01-22     49.5        30.3
## 2 Adults   2021-01-21     53.6        32.1
## 3 Adults   2021-01-21     46.3        27.6
## 4 Adults   2021-01-23     50.5        31.3
## # … with 831 more rows
```
…
## Pivot

```r
biden_longer = biden %>%
  pivot_longer(
    cols = c(approval, disapproval),
    names_to = "rating_type",
    values_to = "rating_value"
  )

biden_longer
```

```
## # A tibble: 1,670 × 4
##   subgroup date       rating_type rating_value
##   <chr>    <date>     <chr>              <dbl>
## 1 Adults   2021-01-22 approval            49.5
## 2 Adults   2021-01-22 disapproval         30.3
## 3 Adults   2021-01-21 approval            53.6
## 4 Adults   2021-01-21 disapproval         32.1
## # … with 1,666 more rows
```
…
---
class: font100, code50
## Your turn.

[Quiz 1](https://docs.google.com/forms/d/e/1FAIpQLSc_uw7gkcSP1hHi502dg6Nx-E1b1aFGYPY3t4dyZEySUiI5xw/viewform?usp=sf_link)

1. Suppose you have data (available with `library(tidyr)`) on TB incidence as follows:

```r
table2
```

```
## # A tibble: 12 × 4
##   country      year type          count
##   <chr>       <int> <chr>         <int>
## 1 Afghanistan  1999 cases           745
## 2 Afghanistan  1999 population 19987071
## 3 Afghanistan  2000 cases          2666
## 4 Afghanistan  2000 population 20595360
## # … with 8 more rows
```
…
---

## `fill()`

.pull-left[

```r
sales
```

```
## # A tibble: 16 × 3
##    quarter  year sales
##    <chr>   <dbl> <dbl>
##  1 Q1       2000 66013
##  2 Q2         NA 69182
##  3 Q3         NA 53175
##  4 Q4         NA 21001
##  5 Q1       2001 46036
##  6 Q2         NA 58842
##  7 Q3         NA 44568
##  8 Q4         NA 50197
##  9 Q1       2002 39113
## 10 Q2         NA 41668
## 11 Q3         NA 30144
## 12 Q4         NA 52897
## # … with 4 more rows
```
]
.pull-right[

```r
sales %>% fill(year)
```

```
## # A tibble: 16 × 3
##    quarter  year sales
##    <chr>   <dbl> <dbl>
##  1 Q1       2000 66013
##  2 Q2       2000 69182
##  3 Q3       2000 53175
##  4 Q4       2000 21001
##  5 Q1       2001 46036
##  6 Q2       2001 58842
##  7 Q3       2001 44568
##  8 Q4       2001 50197
##  9 Q1       2002 39113
## 10 Q2       2002 41668
## 11 Q3       2002 30144
## 12 Q4       2002 52897
## # … with 4 more rows
```
…
---

## `nycflights13` relational data

.panelset[

.panel[.panel-name[airlines]
Full carrier name from abbreviation

```r
airlines
```

```
## # A tibble: 16 × 2
##   carrier name                    
##   <chr>   <chr>                   
## 1 9E      Endeavor Air Inc.       
## 2 AA      American Airlines Inc.  
## 3 AS      Alaska Airlines Inc.    
## 4 B6      JetBlue Airways         
## 5 DL      Delta Air Lines Inc.    
## 6 EV      ExpressJet Airlines Inc.
## # … with 10 more rows
```
]
.panel[.panel-name[airports]
Information about each airport, identified by `faa` code:

```r
airports
```

```
## # A tibble: 1,458 × 8
##   faa   name                lat   lon   alt    tz dst   tzone    
##   <chr> <chr>             <dbl> <dbl> <dbl> <dbl> <chr> <chr>    
## 1 04G   Lansdowne Airport  41.1 -80.6  1044    -5 A     America/…
## 2 06A   Moton Field Muni…  32.5 -85.7   264    -6 A     America/…
## 3 06C   Schaumburg Regio…  42.0 -88.1   801    -6 A     America/…
## 4 06N   Randall Airport    41.4 -74.4   523    -5 A     America/…
## 5 09J   Jekyll Island Ai…  31.1 -81.4    11    -5 A     America/…
## 6 0A9   Elizabethton Mun…  36.4 -82.2  1593    -5 A     America/…
## # … with 1,452 more rows
```
]
.panel[.panel-name[planes]
information about each plane, identified by its `tailnum`:

```r
planes
```

```
## # A tibble: 3,322 × 9
##   tailnum  year type      manufacturer  model engines seats speed
##   <chr>   <int> <chr>     <chr>         <chr>   <int> <int> <int>
## 1 N10156   2004 Fixed wi… EMBRAER       EMB-…       2    55    NA
## 2 N102UW   1998 Fixed wi… AIRBUS INDUS… A320…       2   182    NA
## 3 N103US   1999 Fixed wi… AIRBUS INDUS… A320…       2   182    NA
## 4 N104UW   1999 Fixed wi… AIRBUS INDUS… A320…       2   182    NA
## 5 N10575   2002 Fixed wi… EMBRAER       EMB-…       2    55    NA
## 6 N105UW   1999 Fixed wi… AIRBUS INDUS… A320…       2   182    NA
## # … with 3,316 more rows, and 1 more variable: engine <chr>
```
]
.panel[.panel-name[weather]
Weather at each NYC airport for each hour:

```r
weather
```

```
## # A tibble: 26,115 × 15
##   origin  year month   day  hour  temp  dewp humid wind_dir
##   <chr>  <int> <int> <int> <int> <dbl> <dbl> <dbl>    <dbl>
## 1 EWR     2013     1     1     1  39.0  26.1  59.4      270
## 2 EWR     2013     1     1     2  39.0  27.0  61.6      250
## 3 EWR     2013     1     1     3  39.0  28.0  64.4      240
## 4 EWR     2013     1     1     4  39.9  28.0  62.2      250
## 5 EWR     2013     1     1     5  39.0  28.0  64.4      260
## 6 EWR     2013     1     1     6  37.9  28.0  67.2      240
## # … with 26,109 more rows, and 6 more variables:
## #   wind_speed <dbl>, wind_gust <dbl>, precip <dbl>,
## #   pressure <dbl>, visib <dbl>, time_hour <dttm>
```
…
## Where's the primary key in `flights`?

.pull-left[
Is he in the flight number?

```r
flights %>% 
  count(year, month, day, flight) %>% 
  filter(n > 1)
```

```
## # A tibble: 29,768 × 5
##    year month   day flight     n
##   <int> <int> <int>  <int> <int>
## 1  2013     1     1      1     2
## 2  2013     1     1      3     2
## 3  2013     1     1      4     2
## 4  2013     1     1     11     3
## 5  2013     1     1     15     2
## 6  2013     1     1     21     2
## # … with 29,762 more rows
```
Nope.
]
.pull-right[
Is he hiding in the plane tailnum?

```r
flights %>% 
  count(year, month, day, tailnum) %>% 
  filter(n > 1)
```

```
## # A tibble: 64,928 × 5
##    year month   day tailnum     n
##   <int> <int> <int> <chr>   <int>
## 1  2013     1     1 N0EGMQ      2
## 2  2013     1     1 N11189      2
## 3  2013     1     1 N11536      2
## 4  2013     1     1 N11544      3
## 5  2013     1     1 N11551      2
## 6  2013     1     1 N12540      2
## # … with 64,922 more rows
```
…
