BST430 Lecture 5b
…
.pull-right[
**stratified by carrier**

```r
ontime %>% group_by(carrier) %>% 
* summarize(ontime_pct = mean(ontime, na.rm = TRUE)*100)
```

```
## # A tibble: 16 × 2
##   carrier ontime_pct
##   <chr>        <dbl>
## 1 9E            61.6
## 2 AA            66.5
## 3 AS            73.3
## 4 B6            56.3
## # … with 12 more rows
```
…
---

## `ungroup()` to remove grouping variables.

.pull-left[
Default

```r
ontime_drop = ontime %>% group_by(carrier, dest) %>% summarize(ontime_pct = mean(ontime, na.rm = TRUE)*100)
ontime_drop %>% summarize(n_dest = n_distinct(dest))
```

```
## # A tibble: 16 × 2
##   carrier n_dest
##   <chr>    <int>
## 1 9E          49
## 2 AA          19
## 3 AS           1
## 4 B6          42
## # … with 12 more rows
```
…
## `group_by() filter()`

We can combine group_by with filter, mutate or arrange to evaluate these verbes on each group.

```r
ontime_1500 = ontime %>% group_by(dest) %>% filter(n() > 1500) %>%
  mutate(n_flights_dest = n(), .after = 1)

ontime_1500 %>% arrange(n_flights_dest)
```

```
## # A tibble: 314,599 × 21
## # Groups:   dest [53]
##    year n_flights_dest month   day dep_time sched_dep_time
##   <int>          <int> <int> <int>    <int>          <int>
## 1  2013           1525     1     1     1304           1227
## 2  2013           1525     1     1     1732           1630
## 3  2013           1525     1     2      834            823
## 4  2013           1525     1     2     1228           1229
## # … with 314,595 more rows, and 15 more variables:
## #   dep_delay <dbl>, arr_time <int>, sched_arr_time <int>,
## #   arr_delay <dbl>, carrier <chr>, flight <int>, …
```
…
## select delay columns

```r
flights %>% select(ends_with('delay'))
```

```
## # A tibble: 336,776 × 2
##   dep_delay arr_delay
##       <dbl>     <dbl>
## 1         2        11
## 2         4        20
## 3         2        33
## 4        -1       -18
## # … with 336,772 more rows
```
---

## everything except columns containing "time"

```r
flights %>% select(!contains('time'))
```

```
## # A tibble: 336,776 × 13
##    year month   day dep_delay arr_delay carrier flight tailnum
##   <int> <int> <int>     <dbl>     <dbl> <chr>    <int> <chr>  
## 1  2013     1     1         2        11 UA        1545 N14228 
## 2  2013     1     1         4        20 UA        1714 N24211 
## 3  2013     1     1         2        33 AA        1141 N619AA 
## 4  2013     1     1        -1       -18 B6         725 N804JB 
## # … with 336,772 more rows, and 5 more variables: origin <chr>,
## #   dest <chr>, distance <dbl>, hour <dbl>, minute <dbl>
```
---

## character columns

```r
flights %>% select(where(is.character))
```

```
## # A tibble: 336,776 × 4
##   carrier tailnum origin dest 
##   <chr>   <chr>   <chr>  <chr>
## 1 UA      N14228  EWR    IAH  
## 2 UA      N24211  LGA    IAH  
## 3 AA      N619AA  JFK    MIA  
## 4 B6      N804JB  JFK    BQN  
## # … with 336,772 more rows
```

---

## Columns with no missing values

```r
flights %>% select(where(~!any(is.na(.x))))
```

```
## # A tibble: 336,776 × 13
##    year month   day sched_dep_time sched_arr_time carrier flight
##   <int> <int> <int>          <int>          <int> <chr>    <int>
## 1  2013     1     1            515            819 UA        1545
## 2  2013     1     1            529            830 UA        1714
## 3  2013     1     1            540            850 AA        1141
## 4  2013     1     1            545           1022 B6         725
## # … with 336,772 more rows, and 6 more variables: origin <chr>,
## #   dest <chr>, distance <dbl>, hour <dbl>, minute <dbl>,
## #   time_hour <dttm>
```
…
---

## NYC AirBNB data

```r
nycbnb
```

```
## # A tibble: 12,773 × 16
##      id name    host_id price neighborhood accommodates room_type
##   <dbl> <chr>     <dbl> <dbl> <chr>               <dbl> <chr>    
## 1  2595 Skylit…    2845   150 Midtown                 1 Entire h…
## 2  3831 Whole …    4869    75 Bedford-Stu…            3 Entire h…
## 3  5121 BlissA…    7356    60 Bedford-Stu…            2 Private …
## 4  5136 Spacio…    7378   275 Sunset Park             4 Entire h…
## # … with 12,769 more rows, and 9 more variables: borough <chr>,
## #   minimum_nights <dbl>, maximum_nights <dbl>,
## #   availability_90 <dbl>, beds <dbl>, …
```
…
