BST430 Lecture 7
…
---

## Step 2. Count flights per date

.midi[

```r
flights %>%
  mutate(date = glue("{year} {month} {day}")) %>%
  count(date)
```

```
## # A tibble: 365 × 2
##   date          n
##   <glue>    <int>
## 1 2013 1 1    842
## 2 2013 1 10   932
## 3 2013 1 11   930
## 4 2013 1 12   690
## # … with 361 more rows
```
…
---

## Step 2. Count flights per date

.midi[

```r
flights %>%
  mutate(date = ymd(glue("{year} {month} {day}"))) %>% 
  count(date)
```

```
## # A tibble: 365 × 2
##   date           n
##   <date>     <int>
## 1 2013-01-01   842
## 2 2013-01-02   943
## 3 2013-01-03   914
## 4 2013-01-04   915
## # … with 361 more rows
```
…
---

## When you only have / want the time?

```r
flights_sml = flights_sml %>% 
* mutate(time = hm(glue("{hour} {minute}"))) %>%
  relocate(time)
flights_sml
```

```
## # A tibble: 336,776 × 9
##   time      origin dest   year month   day dep_time  hour minute
##   <Period>  <chr>  <chr> <int> <int> <int>    <int> <dbl>  <dbl>
## 1 5H 15M 0S EWR    IAH    2013     1     1      517     5     15
## 2 5H 29M 0S LGA    IAH    2013     1     1      533     5     29
## 3 5H 40M 0S JFK    MIA    2013     1     1      542     5     40
## 4 5H 45M 0S JFK    BQN    2013     1     1      544     5     45
## # … with 336,772 more rows
```
…
