BST430 Lecture 09
…
- `read_excel()` - read xls or xlsx files
- ...
]

---

## Reading data

```r
nobel = read_csv(file = "l09/data/nobel.csv")
nobel
```

```
## # A tibble: 935 × 26
##      id firstname      surname    year category affiliation city 
##   <dbl> <chr>          <chr>     <dbl> <chr>    <chr>       <chr>
## 1     1 Wilhelm Conrad Röntgen    1901 Physics  Munich Uni… Muni…
## 2     2 Hendrik A.     Lorentz    1902 Physics  Leiden Uni… Leid…
## 3     3 Pieter         Zeeman     1902 Physics  Amsterdam … Amst…
## 4     4 Henri          Becquerel  1903 Physics  École Poly… Paris
## # … with 931 more rows, and 19 more variables: country <chr>,
## #   born_date <date>, died_date <date>, gender <chr>,
## #   born_city <chr>, born_country <chr>, …
```
…
---

.your-turn[
### .hand[Your turn!]
.midi[
- [RStudio Cloud > l09 - Application Exercise - Nobels and Sales](https://rstudio.cloud/spaces/162296/project/2939203) > `sales-excel.Rmd`. 
- Load the `sales.xlsx` file from the `data-raw/` folder, using appropriate arguments for the `read_excel()` function such that it looks like the output on the left.
- **Stretch goal:** Manipulate the sales data such that it looks like the output on the right.
]
]

.pull-left[

```
## # A tibble: 9 × 2
##   id      n    
##   <chr>   <chr>
## 1 Brand 1 n    
## 2 1234    8    
## 3 8721    2    
## 4 1822    3    
## # … with 5 more rows
```
…
