BST430 Lecture 10
…
```r
book_names = tibble(gutenberg_id = c(158, 1342, 5200, 7849),
                    title = c('Emma', 'Pride and prejudice',
                              'Metamorphosis', 'The Trial'))
books = gutenbergr::gutenberg_download(book_names$gutenberg_id) %>% left_join(book_names)
```

.scroll-box-10[

```r
books %>% group_by(title) %>% slice_head(n=6)
```

```
## # A tibble: 24 x 3
## # Groups:   title [4]
##   gutenberg_id text             title        
##          <dbl> <chr>            <chr>        
## 1          158 "Emma"           Emma         
## 2          158 ""               Emma         
## 3          158 "by Jane Austen" Emma         
## 4          158 ""               Emma         
## 5          158 ""               Emma         
## 6          158 "Contents"       Emma         
## 7         5200 "Metamorphosis"  Metamorphosis
## 8         5200 ""               Metamorphosis
## # ... with 16 more rows
```
]

---

## Get words

```r
book_words = unnest_tokens(books, text, output = 'word', drop = TRUE)
book_words
```

```
## # A tibble: 394,398 x 3
##   gutenberg_id title word    
##          <dbl> <chr> <chr>   
## 1          158 Emma  emma    
## 2          158 Emma  by      
## 3          158 Emma  jane    
## 4          158 Emma  austen  
## 5          158 Emma  contents
## 6          158 Emma  volume  
## 7          158 Emma  i       
## 8          158 Emma  chapter 
## # ... with 394,390 more rows
```
…
---

## Term frequency in Kafka vs Austin

```r
total_words = word_counts %>%
  group_by(title) %>%
  summarize(total = sum(n))
word_counts = left_join(word_counts, total_words)
word_counts
```

```
## # A tibble: 21,807 x 4
## # Groups:   title [4]
##   title               word      n  total
##   <chr>               <chr> <int>  <int>
## 1 Emma                to     5238 161113
## 2 Emma                the    5201 161113
## 3 The Trial           the    4919  88870
## 4 Emma                and    4896 161113
## 5 Pride and prejudice the    4333 122359
## 6 Emma                of     4291 161113
## 7 Pride and prejudice to     4163 122359
## 8 Pride and prejudice of     3612 122359
## # ... with 21,799 more rows
```
…
## Sentiment analysis

```r
sentiments
```

```
## # A tibble: 6,786 x 2
##   word        sentiment
##   <chr>       <chr>    
## 1 2-faces     negative 
## 2 abnormal    negative 
## 3 abolish     negative 
## 4 abominable  negative 
## 5 abominably  negative 
## 6 abominate   negative 
## 7 abomination negative 
## 8 abort       negative 
## # ... with 6,778 more rows
```
…
## Add sentiments to words

```r
word_sentiments = word_counts %>%
* left_join(sentiments) %>%
  filter(!is.na(sentiment)) %>%
  group_by(title) %>%
  mutate(word_collapse = fct_lump_n(word, n = 10),
    word_collapse = fct_reorder(word_collapse, n, sum)) %>%
    select(title, word_collapse, sentiment, n)
word_sentiments
```

```
## # A tibble: 4,498 x 4
## # Groups:   title [4]
##   title               word_collapse sentiment     n
##   <chr>               <fct>         <chr>     <int>
## 1 Emma                miss          negative    599
## 2 Emma                well          positive    401
## 3 Emma                good          positive    359
## 4 Pride and prejudice miss          negative    283
## 5 Emma                great         positive    264
## 6 Pride and prejudice well          positive    224
## 7 The Trial           like          positive    212
## 8 Emma                like          positive    200
## # ... with 4,490 more rows
```
…
