BST430 Lecture 10
…
---

## Cardiac diagnoses

```r
diagnoses = read_csv('l10/data/cardiac-dx.csv')
diagnoses
```

```
## # A tibble: 100 × 3
##      id gender diagnoses                                         
##   <dbl> <chr>  <chr>                                             
## 1 26108 F      {a,d,d} | abdominal situs ambiguous (abdominal he…
## 2 10949 M      {s,d,l} | aortic stenosis - valvar | atrial septa…
## 3  8090 F      {s,l,l} | aortic valve position relative to the p…
## 4 19800 M      {s,l,l} | crisscross atrioventricular valves | de…
## 5  2708 M      aberrant left subclavian artery | hypoplastic mai…
## 6 14031 F      absence of the suprarenal inferior vena cava with…
## 7  4185 M      aortic arch hypoplasia | aortic atresia | coronar…
## 8   313 F      aortic arch hypoplasia | aortic atresia | hypopla…
## # … with 92 more rows
```

.question[How to get all the diagnoses of hypoplastic left heart?]

---

## Attempt 1

```r
diagnoses %>% count(diagnoses) %>% 
  arrange(desc(n))
```

```
## # A tibble: 67 × 2
##   diagnoses                                                     n
##   <chr>                                                     <int>
## 1 screener diagnosis: none                                     26
## 2 hypoplastic left heart syndrome | screener diagnosis: no…     5
## 3 atrial septal defect, secundum | screener diagnosis: atr…     3
## 4 aortic atresia | hypoplastic left heart syndrome | mitra…     2
## 5 screener diagnosis: none | tetralogy of fallot                2
## 6 {a,d,d} | abdominal situs ambiguous (abdominal heterotax…     1
## 7 {s,d,l} | aortic stenosis - valvar | atrial septal defec…     1
## 8 {s,l,l} | aortic valve position relative to the pulmonar…     1
## # … with 59 more rows
```

--

Too many unique diagnoses to make headway with this.

---

## Using string matching

```r
filter(diagnoses, str_detect(diagnoses, 'hypoplastic'))
```

```
## # A tibble: 50 × 3
##      id gender diagnoses                                         
##   <dbl> <chr>  <chr>                                             
## 1 26108 F      {a,d,d} | abdominal situs ambiguous (abdominal he…
## 2 10949 M      {s,d,l} | aortic stenosis - valvar | atrial septa…
## 3 19800 M      {s,l,l} | crisscross atrioventricular valves | de…
## 4  2708 M      aberrant left subclavian artery | hypoplastic mai…
## 5 14031 F      absence of the suprarenal inferior vena cava with…
## 6  4185 M      aortic arch hypoplasia | aortic atresia | coronar…
## 7   313 F      aortic arch hypoplasia | aortic atresia | hypopla…
## 8 10792 M      aortic arch hypoplasia | aortic atresia | hypopla…
## # … with 42 more rows
```
…
---

## Split into pieces

```r
diagnoses_row %>% filter(str_detect(diagnoses, 'hypoplastic')) %>%
  count(diagnoses) %>% arrange(desc(n))
```

```
## # A tibble: 15 × 2
##   diagnoses                                                 n
##   <chr>                                                 <int>
## 1 hypoplastic left heart syndrome                          21
## 2 hypoplastic right ventricle (subnormal cavity volume)     8
## 3 hypoplastic left ventricle (subnormal cavity volume)      7
## 4 hypoplastic mitral valve                                  7
## 5 hypoplastic left pulmonary artery                         6
## 6 hypoplastic main pulmonary artery                         6
## 7 hypoplastic right pulmonary artery                        5
## 8 hypoplastic tricuspid valve                               3
## # … with 7 more rows
```
…
.scroll-box-10[

```r
books %>% group_by(title) %>% slice_head(n=6)
```

```
## # A tibble: 24 × 3
## # Groups:   title [4]
##   gutenberg_id text             title        
##          <dbl> <chr>            <chr>        
## 1          158 "Emma"           Emma         
## 2          158 ""               Emma         
## 3          158 "by Jane Austen" Emma         
## 4          158 ""               Emma         
## 5          158 ""               Emma         
## 6          158 "Contents"       Emma         
## 7         5200 "Metamorphosis"  Metamorphosis
## 8         5200 ""               Metamorphosis
## # … with 16 more rows
```
]

---

## Get words

```r
book_words = unnest_tokens(books, text, output = 'word', drop = TRUE)
book_words
```

```
## # A tibble: 389,746 × 3
##   gutenberg_id title word    
##          <dbl> <chr> <chr>   
## 1          158 Emma  emma    
## 2          158 Emma  by      
## 3          158 Emma  jane    
## 4          158 Emma  austen  
## 5          158 Emma  contents
## 6          158 Emma  volume  
## 7          158 Emma  i       
## 8          158 Emma  chapter 
## # … with 389,738 more rows
```
…
---

## Term frequency in Kafka vs Austin

```r
total_words = word_counts %>% 
  group_by(title) %>% 
  summarize(total = sum(n))
word_counts = left_join(word_counts, total_words)
word_counts 
```

```
## # A tibble: 21,423 × 4
## # Groups:   title [4]
##   title               word      n  total
##   <chr>               <chr> <int>  <int>
## 1 Emma                to     5238 161113
## 2 Emma                the    5201 161113
## 3 Emma                and    4896 161113
## 4 The Trial           the    4725  84218
## 5 Pride and prejudice the    4333 122359
## 6 Emma                of     4291 161113
## 7 Pride and prejudice to     4163 122359
## 8 Pride and prejudice of     3612 122359
## # … with 21,415 more rows
```
…
## Sentiment analysis

```r
word_sentiments = word_counts %>% 
* left_join(sentiments) %>%
  filter(!is.na(sentiment)) %>% 
  group_by(title) %>% 
  mutate(word_collapse = fct_lump_n(word, n = 10, w = n),
    word_collapse = fct_reorder(word_collapse, n, sum)) %>% 
    select(title, word_collapse, sentiment, n)
word_sentiments
```

```
## # A tibble: 4,469 × 4
## # Groups:   title [4]
##   title               word_collapse sentiment     n
##   <chr>               <fct>         <chr>     <int>
## 1 Emma                miss          negative    599
## 2 Emma                well          positive    401
## 3 Emma                good          positive    359
## 4 Pride and prejudice miss          negative    283
## 5 Emma                great         positive    264
## 6 Pride and prejudice well          positive    224
## 7 The Trial           like          positive    212
## 8 Emma                like          positive    200
## # … with 4,461 more rows
```
…
