BST430 Lecture 11
…
Andrew's Office hours at 4:30-5:30 Thursday by zoom.

---

## Motivation: time series

Let's suppose we tabulate<sup>1</sup> the average delay at the NYC airports at every hour during the month of June.

```r
delay_june %>% slice_max(n = 1, order_by = total_delay)
```

```
## # A tibble: 54 × 5
## # Groups:   hour, origin, month [144]
##   month day   hour  origin total_delay
##   <fct> <fct> <fct> <fct>        <dbl>
## 1 6     27    5     EWR             56
## 2 6     15    5     JFK             38
## 3 6     26    5     LGA             59
## 4 6     26    6     EWR            617
## # … with 50 more rows
```
…
