BST430 Lecture 16
…
---

### With purrr

Ok, back to our set of `lm` fits:

```r
many_fits = many_fits %>% mutate(tidyout = map(fit, tidy))
many_fits
```

```
## # A tibble: 142 x 4
##    country     continent fit    tidyout         
##    <fct>       <fct>     <list> <list>          
##  1 Afghanistan Asia      <lm>   <tibble [2 × 5]>
##  2 Albania     Europe    <lm>   <tibble [2 × 5]>
##  3 Algeria     Africa    <lm>   <tibble [2 × 5]>
##  4 Angola      Africa    <lm>   <tibble [2 × 5]>
##  5 Argentina   Americas  <lm>   <tibble [2 × 5]>
##  6 Australia   Oceania   <lm>   <tibble [2 × 5]>
##  7 Austria     Europe    <lm>   <tibble [2 × 5]>
##  8 Bahrain     Asia      <lm>   <tibble [2 × 5]>
##  9 Bangladesh  Asia      <lm>   <tibble [2 × 5]>
## 10 Belgium     Europe    <lm>   <tibble [2 × 5]>
## # … with 132 more rows
```

---

### With rowwise

```r
many_fits = many_fits %>% rowwise() %>% mutate(augmentout = list(augment(fit)))
many_fits
```

```
## # A tibble: 142 x 5
## # Rowwise: 
##    country     continent fit    tidyout          augmentout      
##    <fct>       <fct>     <list> <list>           <list>          
##  1 Afghanistan Asia      <lm>   <tibble [2 × 5]> <tibble [12 × 7…
##  2 Albania     Europe    <lm>   <tibble [2 × 5]> <tibble [12 × 7…
##  3 Algeria     Africa    <lm>   <tibble [2 × 5]> <tibble [12 × 7…
##  4 Angola      Africa    <lm>   <tibble [2 × 5]> <tibble [12 × 7…
##  5 Argentina   Americas  <lm>   <tibble [2 × 5]> <tibble [12 × 7…
##  6 Australia   Oceania   <lm>   <tibble [2 × 5]> <tibble [12 × 7…
##  7 Austria     Europe    <lm>   <tibble [2 × 5]> <tibble [12 × 7…
##  8 Bahrain     Asia      <lm>   <tibble [2 × 5]> <tibble [12 × 7…
##  9 Bangladesh  Asia      <lm>   <tibble [2 × 5]> <tibble [12 × 7…
## 10 Belgium     Europe    <lm>   <tibble [2 × 5]> <tibble [12 × 7…
## # … with 132 more rows
```
…
---

### Unnest our fits

```r
many_fits_coef = many_fits %>% unnest(cols = c(tidyout))
many_fits_coef
```

```
## # A tibble: 284 x 9
##    country   continent fit   term    estimate std.error statistic
##    <fct>     <fct>     <lis> <chr>      <dbl>     <dbl>     <dbl>
##  1 Afghanis… Asia      <lm>  (Inter…   40.4     0.413       97.7 
##  2 Afghanis… Asia      <lm>  I(year…    0.275   0.0205      13.5 
##  3 Albania   Europe    <lm>  (Inter…   71.9     0.670      107.  
##  4 Albania   Europe    <lm>  I(year…    0.335   0.0332      10.1 
##  5 Algeria   Africa    <lm>  (Inter…   65.0     0.447      145.  
##  6 Algeria   Africa    <lm>  I(year…    0.569   0.0221      25.7 
##  7 Angola    Africa    <lm>  (Inter…   40.1     0.475       84.3 
##  8 Angola    Africa    <lm>  I(year…    0.209   0.0235       8.90
##  9 Argentina Americas  <lm>  (Inter…   71.5     0.0988     724.  
## 10 Argentina Americas  <lm>  I(year…    0.232   0.00489     47.4 
## # … with 274 more rows, and 2 more variables: p.value <dbl>,
## #   augmentout <list>
```
…
