BST430 Lecture 17
…
???

Dropping `from`, `sent_email` quells the warnings about predicted probabilities being 0/1. Actually some of these variables might have predictive power, but we would need a more sophisticated approach than logistic regression to use them

---

## Predict outcome on the testing dataset

```r
predict(email_fit, test_data)
```

```
## # A tibble: 785 x 1
##    .pred_class
##    <fct>      
##  1 0          
##  2 0          
##  3 0          
##  4 0          
##  5 0          
##  6 0          
##  7 0          
##  8 0          
##  9 0          
## 10 0          
## # … with 775 more rows
```

---

## Predict probabilities on the testing dataset

```r
email_pred = predict(email_fit, test_data, type = "prob") %>%
  bind_cols(test_data %>% select(spam, time))

email_pred
```

```
## # A tibble: 785 x 4
##    .pred_0 .pred_1 spam  time               
##      <dbl>   <dbl> <fct> <dttm>             
##  1   0.999 0.00127 0     2012-01-01 14:38:32
##  2   0.996 0.00373 0     2012-01-01 18:32:53
##  3   0.994 0.00596 0     2012-01-01 22:16:39
##  4   0.992 0.00801 0     2012-01-02 19:07:51
##  5   0.845 0.155   0     2012-01-02 16:55:03
##  6   0.962 0.0376  0     2012-01-03 14:51:16
##  7   0.996 0.00414 0     2012-01-03 17:34:13
##  8   0.997 0.00308 0     2012-01-03 17:40:07
##  9   0.927 0.0728  0     2012-01-03 19:06:48
## 10   0.998 0.00243 0     2012-01-03 19:36:42
## # … with 775 more rows
```

---

## A closer look at predictions

```r
email_pred %>%
  arrange(desc(.pred_1)) %>%
  print(n = 10)
```

```
## # A tibble: 785 x 4
##    .pred_0 .pred_1 spam  time               
##      <dbl>   <dbl> <fct> <dttm>             
##  1  0.0970   0.903 1     2012-03-27 01:17:01
##  2  0.165    0.835 1     2012-03-01 00:40:27
*##  3  0.191    0.809 1     2012-01-21 16:55:55
##  4  0.206    0.794 0     2012-01-02 22:30:31
##  5  0.243    0.757 1     2012-03-31 05:20:24
##  6  0.258    0.742 1     2012-03-17 12:20:57
*##  7  0.288    0.712 0     2012-02-03 08:25:39
##  8  0.293    0.707 1     2012-02-24 19:43:44
##  9  0.308    0.692 0     2012-01-31 10:07:48
## 10  0.346    0.654 0     2012-02-04 05:39:37
## # … with 775 more rows
```
…
```
## Warning: glm.fit: fitted probabilities numerically 0 or 1 occurred
```

---

.code50[

```r
tidy(email_fit)
```

```
## # A tibble: 30 x 5
##    term           estimate std.error statistic  p.value
##    <chr>             <dbl>     <dbl>     <dbl>    <dbl>
##  1 (Intercept)    -1.18      0.273      -4.31  1.64e- 5
##  2 image          -2.00      0.976      -2.05  4.08e- 2
##  3 num_char        0.0611    0.0240      2.54  1.11e- 2
##  4 line_breaks    -0.00517   0.00135    -3.82  1.35e- 4
##  5 exclaim_subj    0.0672    0.258       0.261 7.94e- 1
##  6 exclaim_mess    0.00649   0.00182     3.56  3.69e- 4
##  7 to_multiple_X1 -3.00      0.383      -7.84  4.57e-15
##  8 cc_X.1.68.     -0.327     0.470      -0.695 4.87e- 1
##  9 attach_X.1.21.  2.40      0.403       5.96  2.57e- 9
## 10 dollar_X.1.64. -0.0448    0.218      -0.206 8.37e- 1
## # … with 20 more rows
```
…
